{
	"minion" : {
		"SQLite" : "sqlite:/opt/minion.db"
	},

	"flows" : {
		"flow1" : {
			"type" : "WerkX::Flow1",
			"args" : {}
		},

		"flow2" : {
			"type" : "WerkX::Flow2",
			"args" : {}
		}
	}
}
